Date (1),Date (2),Date (3),Names (1),Names(2)
1933-03-19,2020-11-14,27-Jan-08,John,aaberg
1929-05-26,1961-06-24,05-Oct-25,Craig,craig
1914-03-07,1951-06-27,30-Apr-31,Mohammad  ,AARON
1959-12-11,1945-07-28,04-Feb-40,Amber  ,AARONS
1994-06-16,2006-04-30,13-Feb-74,Gertrud  ,AARONSON
1970-08-20,2019-05-30,22-Aug-31,Latoyia  ,AASE
1996-09-09,1969-02-23,02-Dec-69,Quinton  ,AASEN
2009-01-08,1967-03-01,27-Jul-22,Alane  ,ABAD
1963-03-21,1970-05-23,06-Aug-40,Karima  ,ABADI
1920-06-19,2024-05-21,23-Jul-03,Renda  ,ABADIE
1933-02-06,2014-07-19,29-Sep-69,Chrissy  ,ABAIR
1963-02-17,1998-05-25,07-Jul-42,Andy  ,ABALOS
1980-04-24,2002-05-13,16-Oct-55,Norma  ,ABARCA
1973-08-01,1934-09-19,14-Oct-22,Tarra  ,ABARE
1938-02-25,1988-04-01,01-Jun-02,Drew  ,ABASCAL
1942-06-05,1956-07-24,17-Jul-80,Iris  ,ABATE
1907-09-11,1958-12-22,25-Dec-13,Shanika  ,ABAYA
1946-06-17,1961-06-02,29-Sep-91,Li  ,ABBAS
1998-11-11,1991-06-17,23-Jun-73,Jaquelyn  ,ABBASI
1948-07-20,1988-10-16,01-Mar-22,Adriane  ,ABBATE
1964-08-29,1949-09-20,24-Mar-34,Rex  ,ABBATIELLO
1915-04-06,2028-03-28,12-Dec-87,Nu  ,ABBE
1975-01-11,1994-02-21,01-Feb-05,Tracey  ,ABBETT
1932-08-09,1985-08-09,07-Sep-69,Diamond  ,ABBEY
2013-11-24,2009-10-03,10-Mar-65,Tonja  ,ABBITT
1952-07-14,1932-08-06,09-Mar-31,Frances  ,ABBOT
2002-11-14,2005-09-04,24-Dec-14,Oren  ,ABBOTT
2000-07-03,2011-08-21,25-Sep-78,Emilee  ,ABBOUD
1938-09-16,2017-11-05,14-Jul-51,Wilburn  ,ABBRUZZESE
1901-08-31,2014-11-06,25-Aug-38,Charisse  ,ABBS
2008-08-12,1971-02-27,11-Aug-56,Daniell  ,ABDALLA
1972-03-24,1950-10-01,06-Jan-05,Inell  ,ABDALLAH
1921-06-14,2014-08-18,28-Feb-59,Jutta  ,ABDELAZIZ
2006-08-26,2009-03-01,28-Jan-49,Eduardo  ,ABDELLA
1907-03-24,1935-06-28,18-Dec-24,Kortney  ,ABDELNOUR
1902-09-01,2009-09-15,18-Sep-55,Evelina  ,ABDELRAHMAN
1928-04-23,1957-10-18,25-Apr-07,Winfred  ,ABDI
2011-04-19,1935-04-15,14-Mar-66,Octavia  ,ABDO
2011-12-31,1973-10-31,23-Jan-36,Latashia  ,ABDON
1985-11-12,2007-10-19,27-Oct-37,Cythia  ,ABDOU
1980-08-14,2002-10-22,16-Apr-08,Lurline  ,ABDUL
1993-06-07,2022-08-03,14-Dec-58,Sherrie  ,ABDULAZIZ
2005-02-11,1970-01-28,15-Nov-02,Burma  ,ABDULLA
2014-10-21,1978-03-29,26-Oct-62,Carolyne  ,ABDULLAH
1962-01-02,1958-07-30,11-Oct-81,Tequila  ,ABDULLAHI
1901-07-03,2005-06-24,02-Nov-45,Karey  ,ABDULRAHMAN
1987-02-07,1933-06-04,02-Mar-11,Lorie  ,ABE
1909-03-28,2013-03-20,06-Jul-74,Debbra  ,ABEBE
2001-03-18,2020-10-27,30-Mar-07,Ardella  ,ABED
1903-04-19,2002-06-29,03-Mar-03,Margart  ,ABEE
