Description;Author;hmm?
tHis is a description of something;Craig Feldman;2015
this is an even longer description of something;Bob Feldman;12 January 2015
The domestic dog (Canis lupus familiaris or Canis familiaris) is a domesticated canid which has been selectively bred for millennia for various behaviors, sensory capabilities, and physical attributes.;Mr John Smith, Billy Bob;19/05/2015
Hello;;July
The quick brown fox jumped over the lazy dog;Meyer, Darryl;March 2015
